<svg version="1.1" xmlns="http://www.w3.org/2000/svg" width="22" height="31" viewBox="489 485 22 31">
  <text font-size="0">M511x516S14420489x485-D_black,transparent_Z1</text>
  <svg x="489" y="485"><g transform="translate(0.027672149304,30.7516384396) scale(0.00985204675947,-0.00987200030311)"><path class="sym-fill" fill="transparent" d="M100 850 l0 -150 350 0 350 0 0 150 0 150 -350 0 -350 0 0 -150z"/><path class="sym-line" fill="black" d="M700 2602 l0 -497 -115 -115 c-63 -63 -116 -112 -119 -110 -2 3 -59 214 -127 470 -67 256 -124 466 -125 468 -1 2 -48 -9 -104 -24 -80 -22 -101 -31 -97 -43 2 -9 66 -249 143 -534 l138 -518 -97 -97 -97 -97 0 -253 0 -252 350 0 350 0 0 -150 0 -150 -350 0 -350 0 0 -350 0 -350 700 0 700 0 0 647 0 648 352 352 353 353 -75 75 -75 75 -300 -300 -300 -300 -75 75 -74 75 138 517 c77 285 141 525 143 534 4 12 -17 21 -97 43 -56 15 -103 26 -104 24 -1 -2 -58 -212 -125 -468 -68 -256 -125 -467 -127 -470 -3 -2 -56 47 -119 110 l-115 115 0 497 0 498 -100 0 -100 0 0 -498z"/></g></svg>
</svg>