<svg version="1.1" xmlns="http://www.w3.org/2000/svg" width="26" height="16" viewBox="487 492 26 16">
  <text font-size="0">M513x508S17011487x492-D_black,transparent_Z1</text>
  <svg x="487" y="492"><g transform="translate(0.130146143554,15.9855452375) scale(0.00988800589832,-0.00996192914841)"><path class="sym-fill" fill="transparent" d="M1223 1139 l-102 -100 207 -202 c114 -112 317 -310 451 -440 l244 -237 101 97 c55 54 101 100 101 103 0 5 -648 638 -850 831 l-50 48 -102 -100z"/><path class="sym-line" fill="black" d="M1329 1391 l-204 -198 -99 10 c-292 32 -673 -115 -963 -371 -35 -31 -62 -61 -61 -67 2 -6 49 -55 105 -109 l103 -98 62 54 c143 125 310 222 468 273 69 23 105 28 191 29 168 2 158 9 659 -479 232 -226 427 -411 433 -412 7 -1 137 120 290 270 l278 272 -457 445 c-252 245 -490 475 -529 512 l-71 67 -205 -198z m455 -590 c245 -239 446 -438 446 -441 0 -12 -200 -202 -209 -198 -13 5 -901 871 -901 878 0 12 200 202 209 198 4 -2 209 -198 455 -437z"/></g></svg>
</svg>