<svg version="1.1" xmlns="http://www.w3.org/2000/svg" width="30" height="15" viewBox="485 493 30 15">
  <text font-size="0">M515x508S10e02485x493-D_black,transparent_Z1</text>
  <svg x="485" y="493"><g transform="translate(0.0,15.0) scale(0.01,-0.01)"><path class="sym-fill" fill="transparent" d="M1700 750 l0 -550 550 0 550 0 0 550 0 550 -550 0 -550 0 0 -550z"/><path class="sym-line" fill="black" d="M0 1400 l0 -100 747 0 748 0 -529 -529 -529 -529 69 -76 c38 -42 71 -76 74 -76 3 0 211 206 462 457 l458 458 0 -503 0 -502 750 0 750 0 0 750 0 750 -1500 0 -1500 0 0 -100z m2800 -650 l0 -550 -550 0 -550 0 0 550 0 550 550 0 550 0 0 -550z"/></g></svg>
</svg>