<svg version="1.1" xmlns="http://www.w3.org/2000/svg" width="23" height="54" viewBox="489 473 23 54">
  <text font-size="0">M512x527S1a020492x498S1002b489x473-D_black,transparent_Z1</text>
  <svg x="492" y="498"><g transform="translate(0.0,29.0) scale(0.01,-0.01)"><path class="sym-line" fill="black" d="M0 1450 l0 -1450 750 0 750 0 0 673 0 672 250 240 c137 132 250 245 250 250 0 6 -31 42 -69 79 l-70 69 -248 -240 c-136 -133 -259 -253 -272 -267 l-24 -26 -559 0 -558 0 0 725 0 725 -100 0 -100 0 0 -1450z"/></g></svg>
  <svg x="489" y="473"><g transform="translate(0.0309226296898,29.7750642771) scale(0.00994247861357,-0.00991626663417)"><path class="sym-line" fill="black" d="M495 2495 c-264 -272 -481 -498 -483 -504 -4 -11 1913 -1984 1932 -1989 6 -1 40 27 76 63 l64 65 -55 57 c-30 32 -221 229 -424 438 -203 209 -395 408 -428 441 l-59 61 416 427 c229 234 416 430 416 434 0 7 -958 995 -969 999 -3 1 -222 -220 -486 -492z"/></g></svg>
</svg>