<svg version="1.1" xmlns="http://www.w3.org/2000/svg" width="46" height="30" viewBox="477 485 46 30">
  <text font-size="0">M523x515S1dc05500x485S1dc0d477x485-D_black,transparent_Z1</text>
  <svg x="500" y="485"><g transform="translate(0.198456464316,29.7715885796) scale(0.00984348055062,-0.00990986854746)"><path class="sym-fill" fill="transparent" d="M821 2360 c-194 -198 -351 -364 -349 -369 2 -5 161 -170 353 -366 l350 -358 357 363 357 363 -338 346 c-186 190 -347 354 -358 363 -18 17 -31 5 -372 -342z"/><path class="sym-line" fill="black" d="M685 2498 c-264 -270 -482 -494 -483 -499 -2 -5 82 -98 187 -206 l191 -197 -107 -111 c-59 -60 -191 -194 -293 -298 l-185 -187 71 -71 71 -71 292 298 292 298 89 -89 c48 -50 368 -376 710 -725 342 -349 625 -636 629 -638 3 -1 37 29 74 66 l68 69 -483 492 c-266 271 -484 496 -486 500 -1 3 187 199 418 435 l420 429 -157 161 c-499 513 -819 836 -828 835 -5 0 -226 -221 -490 -491z m788 -75 c161 -164 321 -328 356 -365 l63 -67 -351 -358 c-194 -197 -358 -358 -365 -358 -7 0 -171 162 -365 359 l-352 360 128 130 c238 243 588 596 591 596 2 0 134 -134 295 -297z"/></g></svg>
  <svg x="477" y="485"><g transform="translate(0.0595366595596,29.7712373111) scale(0.00984348055062,-0.00991238069206)"><path class="sym-fill" fill="transparent" d="M940 2533 c-102 -104 -263 -267 -358 -363 l-172 -176 357 -363 358 -364 350 358 c193 196 350 363 350 370 0 6 -157 172 -350 368 l-350 357 -185 -187z"/><path class="sym-line" fill="black" d="M784 2653 c-181 -186 -401 -410 -487 -499 l-157 -161 420 -429 c231 -236 419 -432 418 -435 -2 -4 -220 -229 -486 -500 l-483 -492 68 -69 c37 -37 71 -67 74 -66 4 2 287 289 629 638 342 349 662 675 710 725 l89 89 292 -298 292 -298 71 71 71 71 -185 187 c-102 104 -234 238 -293 298 l-107 111 191 197 c105 108 189 201 187 206 -5 15 -961 986 -972 989 -6 1 -160 -150 -342 -335z m571 -165 c127 -128 288 -292 358 -364 l128 -130 -352 -360 c-194 -197 -358 -359 -365 -359 -7 0 -171 161 -364 358 l-352 357 72 78 c103 110 634 651 640 651 3 1 109 -104 235 -231z"/></g></svg>
</svg>