<svg version="1.1" xmlns="http://www.w3.org/2000/svg" width="52" height="31" viewBox="474 485 52 31">
  <text font-size="0">M526x516S1dc28474x486S1dc04502x485-D_black,transparent_Z1</text>
  <svg x="474" y="486"><g transform="translate(0.0,30.0) scale(0.01,-0.01)"><path class="sym-line" fill="black" d="M1300 2250 l0 -750 -650 0 -650 0 0 -750 0 -750 750 0 750 0 0 300 0 300 450 0 450 0 0 100 0 100 -450 0 -450 0 0 1100 0 1100 -100 0 -100 0 0 -750z"/></g></svg>
  <svg x="502" y="485"><g transform="translate(0.0,30.0) scale(0.01,-0.01)"><path class="sym-fill" fill="transparent" d="M1100 2250 l0 -550 550 0 550 0 0 550 0 550 -550 0 -550 0 0 -550z"/><path class="sym-line" fill="black" d="M900 2700 l0 -300 -450 0 -450 0 0 -100 0 -100 450 0 450 0 0 -1100 0 -1100 100 0 100 0 0 750 0 750 650 0 650 0 0 750 0 750 -750 0 -750 0 0 -300z m1300 -450 l0 -550 -550 0 -550 0 0 550 0 550 550 0 550 0 0 -550z"/></g></svg>
</svg>