<svg version="1.1" xmlns="http://www.w3.org/2000/svg" width="46" height="30" viewBox="477 485 46 30">
  <text font-size="0">M523x515S1dc27500x485S1dc2f477x485-D_black,transparent_Z1</text>
  <svg x="500" y="485"><g transform="translate(0.16930352287,29.8703723718) scale(0.00990361176962,-0.00990731162392)"><path class="sym-line" fill="black" d="M1435 2278 c-390 -398 -711 -724 -715 -726 -3 -1 -135 131 -294 293 -158 162 -291 295 -295 295 -5 0 -36 -32 -70 -70 l-63 -70 290 -298 290 -297 -195 -199 -194 -199 158 -161 c88 -89 308 -313 491 -499 182 -187 335 -337 339 -335 15 6 968 980 971 991 1 7 -185 203 -413 436 -228 233 -415 427 -415 431 0 3 216 226 480 496 264 269 480 494 480 499 0 11 -121 135 -131 135 -3 0 -325 -325 -714 -722z"/></g></svg>
  <svg x="477" y="485"><g transform="translate(-0.0476487196695,29.8703723718) scale(0.00990361176962,-0.00990731162392)"><path class="sym-line" fill="black" d="M82 2937 c-34 -34 -62 -67 -62 -72 0 -6 216 -230 480 -499 264 -270 480 -493 480 -496 0 -4 -187 -198 -415 -431 -228 -233 -414 -429 -413 -436 3 -11 956 -985 971 -991 4 -2 157 148 339 335 183 186 403 410 491 499 l158 161 -194 199 -195 199 290 297 290 298 -63 70 c-34 38 -65 70 -70 70 -4 0 -137 -133 -295 -295 -159 -162 -291 -294 -294 -293 -4 2 -325 328 -715 726 -389 397 -711 722 -714 722 -4 0 -35 -28 -69 -63z"/></g></svg>
</svg>