<svg version="1.1" xmlns="http://www.w3.org/2000/svg" width="17" height="46" viewBox="492 477 17 46">
  <text font-size="0">AS10040S26500M509x523S10040494x493S26500492x477-D_black,transparent_Z1</text>
  <svg x="494" y="493"><g transform="translate(0.0,30.0) scale(0.01,-0.01)"><path class="sym-fill" fill="transparent" d="M200 650 l0 -450 300 0 300 0 0 450 0 450 -300 0 -300 0 0 -450z"/><path class="sym-line" fill="black" d="M1300 2250 l0 -750 100 0 100 0 0 750 0 750 -100 0 -100 0 0 -750z M0 650 l0 -650 750 0 750 0 0 650 0 650 -750 0 -750 0 0 -650z m800 0 l0 -450 -300 0 -300 0 0 450 0 450 300 0 300 0 0 -450z"/></g></svg>
  <svg x="492" y="477"><g transform="translate(0.199517282911,14.7505211307) scale(0.00964541675618,-0.00973472242044)"><path class="sym-line" fill="black" d="M345 1150 l-350 -350 303 0 302 0 0 -400 0 -400 100 0 100 0 0 400 0 400 302 0 303 0 -350 350 c-192 193 -352 350 -355 350 -3 0 -163 -157 -355 -350z"/></g></svg>
</svg>