M512x527S1a020492x498S1002b489x473	い
M508x508S20300493x493	Fist
M524x515S28d0e491x490S10e20477x485	u
M518x513S20320503x488S1000a483x498	e
M539x531S10e08499x496S14c02508x470S26703477x482S20302462x516	R	r
M526x527S10e08474x492S14c02491x504S26703495x474	R	r
M520x520S14c20497x480S1000a480x505	B	b
M513x514S14c11487x487	C
M508x515S10010493x485	D
M531x521S14c20508x490S1001b469x479S20500502x481S20500499x498	F
M510x515S1cd20490x485	F
M515x508S10002485x493	G
M515x508S10e02485x493	H
M510x515S1a020490x486	き
M523x515S1a020503x485S2a200478x487	J
M513x528S1a020493x472S2a20b487x507	J
M513x515S10e01488x485	K
M512x515S1dc20488x485	L
M526x516S1dc28474x486S1dc04502x485	N
M511x511S20311490x490	O
M508x515S10e04493x485	P
M508x515S10004493x485	Q
M511x526S20320490x511S2990c497x475	S
M517x525S14c12484x476S14c18494x494	T
M508x515S10e20493x485	V
M523x515S1dc05500x485S1dc0d477x485	M
M523x515S1dc27500x485S1dc2f477x485	W
M517x515S10011496x485S10019483x485	X
M529x523S2460a472x478S10020514x493	Z
M525x511S10021495x490S10029475x490	X
M542x511S10012458x496S26606493x489S20312527x496	ぬ
M512x516S14c04489x485	ね
M528x528S10020509x473S2a20b505x507S10002472x511	の
M508x549S10e10492x451S10e40493x519S22b04492x486	は
M508x515S10020493x485	ひ
M512x515S1dc04488x485	ふ
M510x515S1a004490x486	へ
M514x510S19a04486x490	へ
M512x516S14c00489x485	ほ
M509x515S18604491x485	ま
M515x509S18602485x491	み
M516x512S14c02485x489	く
M511x516S14420489x485	B
M511x516S14420489x485	け
M511x510S19220490x491	i
M513x508S17011487x492	C
M512x512S15a11489x489	C
M512x508S1f520488x493	A
M530x531S1a020510x470S2a20b504x505S1a002471x511	J
M514x510S19a20486x490	Y
M514x520S15a12487x480S15a18496x493	T
M512x516S14c20489x485	て
M508x508S20320493x493	さ
M515x512S11e02485x489	し
M512x515S11e04489x485	す
M508x515S10e00493x485	と
M508x515S1c620493x485	せ
M508x515S10050493x485	そ
M508x512S1f540493x488	た
M510x513S1b020490x487	つ
M520x518S14c52480x483S10018505x488	こ
M510x518S10e20495x483S10028490x488	せ
M515x512S1dc02485x488	む
M528x528S10e20509x473S2a20b505x507S10e02472x511	り
