<svg xmlns="http://www.w3.org/2000/svg" xmlns:xlink="http://www.w3.org/1999/xlink" version="1.1" baseProfile="full" viewBox="0 0 200 200" width="200" height="200">
<g fill="black">
<path d="M 99.4 176.0 L 119.4 176.0 L 120.6 175.9 L 121.5 175.7 L 122.4 175.4 L 122.8 175.0 L 123.1 174.1 L 123.3 173.2 L 123.4 172.0 L 123.4 122.0 L 68.5 122.0 L 68.5 118.0 L 123.4 118.0 L 123.4 80.0 L 76.2 80.0 L 76.2 76.0 L 123.4 76.0 L 123.4 41.02696628570557 L 116.5 42.5 L 107.4 44.1 L 98.0 45.4 L 88.3 46.3 L 78.4 46.8 L 78.1 45.1 L 87.7 42.6 L 97.0 40.1 L 106.0 37.7 L 114.7 35.1 L 123.1 32.5 L 131.1 29.7 L 138.9 26.7 L 146.3 23.6 L 153.4 20.4 L 159.32238807678223 17.438805961608885 L 159.3 17.4 L 159.33481483459474 17.432592582702636 L 160.2 17.0 L 161.2516948699951 19.227118682861327 L 168.7 26.2 L 168.9 29.4 L 165.11649599075318 27.8743935585022 L 157.9 30.8 L 150.2 33.6 L 142.2 36.2 L 135.4 38.0843373298645 L 135.4 76.0 L 157.8 76.0 L 167.8 66.0 L 179.8 76.0 L 179.8 80.0 L 135.4 80.0 L 135.4 118.0 L 165.5 118.0 L 175.5 108.0 L 187.5 118.0 L 187.5 122.0 L 135.4 122.0 L 135.4 172.0 L 135.2 174.5 L 134.8 177.0 L 134.0 179.4 L 132.7 181.7 L 131.1 183.7 L 129.1 185.3 L 126.8 186.6 L 124.4 187.4 L 121.9 187.8 L 119.4 188.0 L 119.4 182.0 L 99.4 179.0 Z M 29.4 133.0 L 57.9 133.0 L 63.9 128.0 L 74.9 137.0 L 69.9 141.0 L 69.9 179.0 L 57.9 185.0 L 57.9 175.0 L 29.4 175.0 L 29.4 182.0 L 17.4 188.0 L 17.4 127.0 Z M 29.4 137.0 L 29.4 171.0 L 57.9 171.0 L 57.9 137.0 Z M 69.3 108.0 L 69.3 112.0 L 18.0 112.0 L 18.0 108.0 L 47.3 108.0 L 57.3 98.0 Z M 69.3 82.0 L 69.3 86.0 L 18.0 86.0 L 18.0 82.0 L 47.3 82.0 L 57.3 72.0 Z M 77.4 54.0 L 77.4 58.0 L 14.4 58.0 L 14.4 54.0 L 59.21818180084229 54.0 L 67.4 45.0 Z M 69.3 28.0 L 69.3 32.0 L 18.0 32.0 L 18.0 28.0 L 47.3 28.0 L 57.3 18.0 Z " />
</g>
</svg>
