<svg version="1.1" xmlns="http://www.w3.org/2000/svg" width="12" height="27" viewBox="494 487 12 27">
  <text font-size="0">M506x514S15a08494x487-D_black,transparent_Z1</text>
  <svg x="494" y="487"><g transform="translate(0.0,27.0) scale(0.01,-0.01)"><path class="sym-fill" fill="transparent" d="M397 2212 l-197 -197 0 -908 0 -907 400 0 400 0 0 908 0 907 -198 198 c-108 108 -199 197 -202 197 -3 0 -94 -89 -203 -198z"/><path class="sym-line" fill="black" d="M297 2402 l-297 -297 0 -1053 0 -1052 600 0 600 0 0 1053 0 1052 -298 298 c-163 163 -299 297 -302 297 -3 0 -139 -134 -303 -298z m505 -179 l198 -198 0 -912 0 -913 -400 0 -400 0 0 912 0 913 197 197 c109 109 200 198 203 198 3 0 94 -89 202 -197z"/></g></svg>
</svg>