<svg version="1.1" xmlns="http://www.w3.org/2000/svg" width="15" height="30" viewBox="493 485 15 30">
  <text font-size="0">M508x515S10e20493x485-D_black,transparent_Z1</text>
  <svg x="493" y="485"><g transform="translate(0.0,30.0) scale(0.01,-0.01)"><path class="sym-line" fill="black" d="M0 1500 l0 -1500 750 0 750 0 0 750 0 750 -502 0 -503 0 458 458 c251 251 457 459 457 462 0 3 -34 36 -76 74 l-76 69 -529 -529 -529 -529 0 748 0 747 -100 0 -100 0 0 -1500z"/></g></svg>
</svg>