<svg version="1.1" xmlns="http://www.w3.org/2000/svg" width="19" height="34" viewBox="491 483 19 34">
  <text font-size="0">M510x517S10e20495x483S10028491x487--D01_red_D02_blue_Z1</text>
  <svg x="495" y="483"><g transform="translate(0.0,30.0) scale(0.01,-0.01)"><path class="sym-line" fill="red" d="M0 1500 l0 -1500 750 0 750 0 0 750 0 750 -502 0 -503 0 458 458 c251 251 457 459 457 462 0 3 -34 36 -76 74 l-76 69 -529 -529 -529 -529 0 748 0 747 -100 0 -100 0 0 -1500z"/></g></svg>
  <svg x="491" y="487"><g transform="translate(0.0,30.0) scale(0.01,-0.01)"><path class="sym-line" fill="blue" d="M1300 2250 l0 -750 -650 0 -650 0 0 -750 0 -750 750 0 750 0 0 1500 0 1500 -100 0 -100 0 0 -750z"/></g></svg>
</svg>