<svg version="1.1" xmlns="http://www.w3.org/2000/svg" width="15" height="30" viewBox="493 485 15 30">
  <text font-size="0">M508x515S10050493x485-D_black,transparent_Z1</text>
  <svg x="493" y="485"><g transform="translate(0.0,30.0) scale(0.01,-0.01)"><path class="sym-line" fill="black" d="M0 2250 l0 -750 100 0 100 0 0 750 0 750 -100 0 -100 0 0 -750z M0 650 l0 -650 750 0 750 0 0 650 0 650 -750 0 -750 0 0 -650z"/></g></svg>
</svg>