<svg version="1.1" xmlns="http://www.w3.org/2000/svg" width="28" height="20" viewBox="486 490 28 20">
  <text font-size="0">M514x510S19a04486x490-D_black,transparent_Z1</text>
  <svg x="486" y="490"><g transform="translate(0.13854150352,20.0080686155) scale(0.00986169607862,-0.00992981555776)"><path class="sym-fill" fill="transparent" d="M860 1270 l0 -530 590 0 590 0 0 530 0 530 -590 0 -590 0 0 -530z"/><path class="sym-line" fill="black" d="M640 1808 l0 -193 -319 -285 c-176 -157 -320 -290 -320 -296 -1 -6 33 -42 74 -79 l76 -68 22 21 c12 11 121 108 242 217 l220 196 3 -390 2 -391 713 0 713 0 274 -246 c151 -136 283 -253 292 -262 16 -13 24 -9 93 53 41 37 75 71 75 76 0 5 -119 115 -265 246 l-265 238 0 678 0 677 -815 0 -815 0 0 -192z m1410 -533 l0 -535 -595 0 -595 0 0 535 0 535 595 0 595 0 0 -535z"/></g></svg>
</svg>