<svg version="1.1" xmlns="http://www.w3.org/2000/svg" width="20" height="29" viewBox="490 486 20 29">
  <text font-size="0">M510x515S1a004490x486-D_black,transparent_Z1</text>
  <svg x="490" y="486"><g transform="translate(0.151481649373,28.7483836208) scale(0.00980873003133,-0.00986205038648)"><path class="sym-fill" fill="transparent" d="M200 2170 l0 -530 550 0 550 0 0 530 0 530 -550 0 -550 0 0 -530z"/><path class="sym-line" fill="black" d="M0 1450 l0 -1450 100 0 100 0 0 720 0 720 561 0 562 0 166 -162 c91 -89 212 -208 268 -263 l103 -100 70 70 c39 39 69 75 68 81 -2 6 -114 118 -250 250 l-248 238 0 673 0 673 -750 0 -750 0 0 -1450z m1300 725 l0 -535 -550 0 -550 0 0 535 0 535 550 0 550 0 0 -535z"/></g></svg>
</svg>