<svg version="1.1" xmlns="http://www.w3.org/2000/svg" width="84" height="83" viewBox="458 447 84 83">
  <text font-size="0">M542x530S10e00506x447S10e08479x447S2df06522x471S2df1e458x472S32b00482x483S10e20521x500S10e28464x500-D_black,transparent_Z1</text>
  <svg x="506" y="447"><g transform="translate(0.0,30.0) scale(0.01,-0.01)"><path class="sym-fill" fill="transparent" d="M200 750 l0 -550 550 0 550 0 0 550 0 550 -550 0 -550 0 0 -550z"/><path class="sym-line" fill="black" d="M1300 2253 l0 -748 -529 529 -529 529 -76 -69 c-42 -38 -76 -71 -76 -74 0 -3 206 -211 457 -462 l458 -458 -503 0 -502 0 0 -750 0 -750 750 0 750 0 0 1500 0 1500 -100 0 -100 0 0 -747z m0 -1503 l0 -550 -550 0 -550 0 0 550 0 550 550 0 550 0 0 -550z"/></g></svg>
  <svg x="479" y="447"><g transform="translate(0.0,30.0) scale(0.01,-0.01)"><path class="sym-fill" fill="transparent" d="M200 750 l0 -550 550 0 550 0 0 550 0 550 -550 0 -550 0 0 -550z"/><path class="sym-line" fill="black" d="M0 1500 l0 -1500 750 0 750 0 0 750 0 750 -502 0 -503 0 458 458 c251 251 457 459 457 462 0 3 -34 36 -76 74 l-76 69 -529 -529 -529 -529 0 748 0 747 -100 0 -100 0 0 -1500z m1300 -750 l0 -550 -550 0 -550 0 0 550 0 550 550 0 550 0 0 -550z"/></g></svg>
  <svg x="522" y="471"><g transform="translate(-0.304173723996,23.7506512493) scale(0.0100519634259,-0.00983425572888)"><path class="sym-fill" fill="transparent" d="M1000 1650 l0 -750 150 0 150 0 0 750 0 750 -150 0 -150 0 0 -750z M1000 300 l0 -300 150 0 150 0 0 300 0 300 -150 0 -150 0 0 -300z"/><path class="sym-line" fill="black" d="M900 2100 l0 -300 -150 0 -150 0 0 252 0 253 -277 -278 -278 -277 278 -277 277 -278 0 253 0 252 150 0 150 0 0 -400 0 -400 -300 0 -300 0 0 -150 0 -150 300 0 300 0 0 -300 0 -300 50 0 50 0 0 300 0 300 150 0 150 0 0 -300 0 -300 50 0 50 0 0 299 0 299 113 4 c84 4 126 10 169 27 124 48 239 163 290 289 22 54 23 70 23 282 0 212 -1 228 -23 282 -51 126 -166 241 -290 289 -43 17 -85 23 -169 27 l-113 4 0 299 0 299 -50 0 -50 0 0 -750 0 -750 -150 0 -150 0 0 750 0 750 -50 0 -50 0 0 -300z m691 -422 c54 -18 116 -65 147 -111 49 -71 57 -109 57 -267 0 -158 -8 -196 -57 -267 -31 -46 -93 -93 -147 -111 -18 -7 -69 -15 -112 -18 l-79 -7 0 403 0 403 79 -7 c43 -3 94 -11 112 -18z"/></g></svg>
  <svg x="458" y="472"><g transform="translate(0.100005858255,23.7506512493) scale(0.0100519634259,-0.00983425572888)"><path class="sym-fill" fill="transparent" d="M700 1650 l0 -750 150 0 150 0 0 750 0 750 -150 0 -150 0 0 -750z M1500 1750 l0 -305 152 153 153 152 -153 152 -152 153 0 -305z M700 300 l0 -300 150 0 150 0 0 300 0 300 -150 0 -150 0 0 -300z"/><path class="sym-line" fill="black" d="M600 2101 l0 -299 -112 -4 c-85 -4 -127 -10 -170 -27 -124 -48 -239 -163 -290 -289 -22 -54 -23 -70 -23 -282 0 -212 1 -228 23 -282 51 -126 166 -241 290 -289 43 -17 85 -23 170 -27 l112 -4 0 -299 0 -299 50 0 50 0 0 300 0 300 150 0 150 0 0 -300 0 -300 50 0 50 0 0 300 0 300 300 0 300 0 0 150 0 150 -300 0 -300 0 0 400 0 400 150 0 150 0 0 -252 0 -253 277 278 278 277 -278 277 -277 278 0 -253 0 -252 -150 0 -150 0 0 300 0 300 -50 0 -50 0 0 -750 0 -750 -150 0 -150 0 0 750 0 750 -50 0 -50 0 0 -299z m1052 -503 l-152 -153 0 305 0 305 152 -153 153 -152 -153 -152z m-1052 -299 l0 -402 -79 7 c-43 3 -94 11 -112 18 -82 28 -159 105 -188 188 -18 51 -25 234 -13 312 13 84 36 132 87 183 64 64 137 91 258 94 l47 1 0 -401z"/></g></svg>
  <svg x="482" y="483"><g transform="translate(0.149874875465,34.7500790925) scale(0.00988906872676,-0.00988956850125)"><path class="sym-line" fill="black" d="M1528 3484 c-592 -92 -1088 -447 -1348 -963 -125 -249 -180 -485 -180 -771 0 -480 183 -911 529 -1242 350 -336 780 -508 1271 -508 451 0 864 150 1193 434 326 281 517 620 591 1051 21 121 21 409 0 530 -43 252 -114 444 -237 639 -282 453 -741 750 -1284 831 -127 19 -413 18 -535 -1z m607 -173 c184 -40 373 -114 533 -210 150 -89 336 -254 435 -386 33 -44 64 -85 69 -91 6 -8 -12 -23 -54 -47 -206 -115 -363 -339 -424 -602 -26 -111 -26 -339 0 -450 61 -263 218 -487 424 -602 42 -24 60 -39 54 -47 -5 -6 -36 -47 -69 -91 -99 -132 -285 -297 -435 -386 -160 -96 -350 -170 -533 -209 -142 -31 -430 -39 -575 -16 -432 69 -788 271 -1050 598 l-82 101 51 27 c166 91 285 229 366 424 60 146 78 246 78 431 0 142 -3 171 -27 259 -72 265 -234 487 -423 579 -24 12 -43 24 -43 29 0 19 169 214 243 282 249 226 512 355 852 417 143 26 467 21 610 -10z m-1621 -946 c334 -326 334 -904 0 -1230 -35 -34 -86 -74 -114 -89 l-51 -28 -38 84 c-55 120 -85 208 -117 343 -25 108 -28 138 -28 305 0 167 3 197 28 305 32 135 62 223 117 343 l38 84 51 -28 c28 -15 79 -55 114 -89z m2780 30 c93 -191 139 -406 140 -660 1 -179 -9 -250 -58 -406 -27 -89 -116 -299 -126 -299 -16 0 -134 83 -173 123 -159 158 -237 356 -237 597 0 241 78 439 237 597 40 40 157 123 173 123 4 0 24 -34 44 -75z"/></g></svg>
  <svg x="521" y="500"><g transform="translate(0.0,30.0) scale(0.01,-0.01)"><path class="sym-line" fill="black" d="M0 1500 l0 -1500 750 0 750 0 0 750 0 750 -502 0 -503 0 458 458 c251 251 457 459 457 462 0 3 -34 36 -76 74 l-76 69 -529 -529 -529 -529 0 748 0 747 -100 0 -100 0 0 -1500z"/></g></svg>
  <svg x="464" y="500"><g transform="translate(0.0,30.0) scale(0.01,-0.01)"><path class="sym-line" fill="black" d="M1300 2253 l0 -748 -529 529 -529 529 -76 -69 c-42 -38 -76 -71 -76 -74 0 -3 206 -211 457 -462 l458 -458 -503 0 -502 0 0 -750 0 -750 750 0 750 0 0 1500 0 1500 -100 0 -100 0 0 -747z"/></g></svg>
</svg>